[
  {
    "property_values": [
      {
        "property_id": 200,
        "property_name": "Ring Size",
        "values": "Black"
      }
    ],
    "offerings": [
      {
        "price": "1",
        "quantity": "5"
      }
    ]
  }
]